{
    "openapi": "3.0.0",
    "info": {
        "title": "PHP CHALLENGE",
        "description": "Class responsible for converting xml to json within the application.",
        "contact": {
            "email": "isaachbnn@gmail.com"
        },
        "version": "0.0.1"
    },
    "paths": {
        "/api/process": {
            "get": {
                "summary": "Get information all from processed XML's.",
                "description": "Returns all xml's processed.",
                "operationId": "App\\Http\\Controllers\\XmlProcessController::index",
                "responses": {
                    "200": {
                        "description": "successful operation"
                    }
                },
                "security": [
                    {
                        "basicAuth": [
                            "user:admin",
                            "password:admin"
                        ]
                    }
                ]
            }
        },
        "/api/process/{id}": {
            "get": {
                "summary": "Get information from processed XML",
                "description": "Returns xmls processed.",
                "operationId": "App\\Http\\Controllers\\XmlProcessController::show",
                "parameters": [
                    {
                        "name": "id",
                        "in": "path",
                        "description": "XML id",
                        "required": true,
                        "schema": {
                            "type": "integer"
                        }
                    }
                ],
                "responses": {
                    "200": {
                        "description": "successful operation"
                    },
                    "400": {
                        "description": "Bad request"
                    },
                    "404": {
                        "description": "Resource Not Found"
                    }
                },
                "security": [
                    {
                        "oauth2_security_example": [
                            "write:projects",
                            "read:projects"
                        ]
                    }
                ]
            }
        }
    }
}